{
  "resources": [
    {
      "id": "64ca0fa4d1d39db980b9d426",
      "record_type": "company",
      "fields": {
        "company name": [
          {
            "label": "company name",
            "modifier": "",
            "value": "Macy's",
            "is_primary": false
          }
        ]
      },
      "owner_id": null,
      "children": [
        "64ca0fa7d1d39db980b9d456"
      ],
      "employers_info": [],
      "updated": "2023-08-02T08:11:16.195246",
      "created": "2023-08-02T08:11:16.195246",
      "updater": null,
      "creator": "Nimble Test",
      "avatar_url": "https://nimbleappcdn.azureedge.net/api/avatars/company_default",
      "tags": [],
      "last_contacted": {
        "tstamp": null,
        "type": null,
        "object_id": null,
        "user_id": null,
        "deletion_tstamp": null
      },
      "company_last_contacted": {
        "in": null,
        "out": null
      },
      "last_contacted_user": null,
      "lc": null,
      "is_important": null,
      "notice": null,
      "reminders": null,
      "reminder": null,
      "creator_id": "64ca0fa2a6430c206b0e9bf6",
      "privacy": {
        "read": null,
        "edit": null
      },
      "is_editable": true,
      "stages_info": {},
      "files": null,
      "object_type": "contact",
      "tags2": []
    },
    {
      "id": "64ca0fa4d1d39db980b9d428",
      "record_type": "company",
      "fields": {
        "company name": [
          {
            "label": "company name",
            "modifier": "",
            "value": "Samsung",
            "is_primary": false
          }
        ]
      },
      "owner_id": null,
      "children": [
        "64ca0fa7d1d39db980b9d458"
      ],
      "employers_info": [],
      "updated": "2023-08-02T08:11:16.271237",
      "created": "2023-08-02T08:11:16.271237",
      "updater": null,
      "creator": "Nimble Test",
      "avatar_url": "https://nimbleappcdn.azureedge.net/api/avatars/company_default",
      "tags": [],
      "last_contacted": {
        "tstamp": null,
        "type": null,
        "object_id": null,
        "user_id": null,
        "deletion_tstamp": null
      },
      "company_last_contacted": {
        "in": null,
        "out": null
      },
      "last_contacted_user": null,
      "lc": null,
      "is_important": null,
      "notice": null,
      "reminders": null,
      "reminder": null,
      "creator_id": "64ca0fa2a6430c206b0e9bf6",
      "privacy": {
        "read": null,
        "edit": null
      },
      "is_editable": true,
      "stages_info": {},
      "files": null,
      "object_type": "contact",
      "tags2": []
    },
    {
      "id": "64ca0fa4d1d39db980b9d42c",
      "record_type": "person",
      "fields": {
        "description": [
          {
            "label": "description",
            "modifier": "twitter",
            "value": "Pioneer & creator of CRM solutions, CEO - Nimble.com, Founder of GoldMine.                                                   Interests; Social Business, Customer Lifecycle, Acquisition,                                                   Enchantment & Retention.",
            "is_primary": false
          }
        ],
        "email": [
          {
            "label": "email",
            "modifier": "work",
            "value": "care@nimble.com",
            "is_primary": false
          }
        ],
        "facebook": [
          {
            "label": "facebook",
            "modifier": "",
            "value": "https://www.facebook.com/jon.ferrara",
            "is_primary": false
          }
        ],
        "first name": [
          {
            "label": "first name",
            "modifier": "",
            "value": "Jon",
            "is_primary": false
          }
        ],
        "last name": [
          {
            "label": "last name",
            "modifier": "",
            "value": "Ferrara",
            "is_primary": false
          }
        ],
        "linkedin": [
          {
            "label": "linkedin",
            "modifier": "",
            "value": "https://www.linkedin.com/in/jonvferrara",
            "is_primary": false
          }
        ],
        "parent company": [
          {
            "label": "parent company",
            "modifier": "",
            "value": "Nimble",
            "is_primary": false,
            "extra_value": "64ca0fa2d1d39db980b9d40d"
          }
        ],
        "title": [
          {
            "label": "title",
            "modifier": "",
            "value": "CEO",
            "is_primary": false
          }
        ],
        "twitter": [
          {
            "label": "twitter",
            "modifier": "",
            "value": "jon_ferrara",
            "is_primary": false
          }
        ],
        "URL": [
          {
            "label": "URL",
            "modifier": "work",
            "value": "http://www.nimble.com",
            "is_primary": false
          }
        ],
        "address": [
          {
            "label": "address",
            "modifier": "work",
            "value": "{\"city\": \"Los Angeles\", \"state\": \"CA\"}",
            "is_primary": false
          }
        ],
        "contact employment": [
          {
            "label": "contact employment",
            "modifier": "",
            "value": "{\"company_name\": \"Nimble\", \"end_date\": null, \"is_present\": true, \"start_date\": null, \"title\": \"CEO\"}",
            "is_primary": false,
            "extra_value": "64ca0fa2d1d39db980b9d40d"
          }
        ],
        "discovered employment": [
          {
            "label": "discovered employment",
            "modifier": "",
            "value": "{\"company_name\": \"Nimble\", \"end_date\": null, \"is_present\": true, \"start_date\": null, \"title\": null}",
            "is_primary": false
          }
        ]
      },
      "owner_id": null,
      "children": [],
      "employers_info": [
        {
          "contact_id": "64ca0fa2d1d39db980b9d40d",
          "company_name": "Nimble",
          "avatar_url": "https://nimbleappcdn.azureedge.net/api/avatars/company_default"
        }
      ],
      "updated": "2023-08-03T08:11:26.414211",
      "created": "2023-08-02T08:11:16.428199",
      "updater": "Nimble Test",
      "creator": "Nimble Test",
      "avatar_url": "https://nimbleappcdn.azureedge.net/api/avatars/5a3dc17a7af6856720f43459/64ca0fa4d1d39db980b9d42c/person/2",
      "tags": [
        {
          "id": "5a3dc17a7af6856720f43459/CEO",
          "tag": "CEO"
        }
      ],
      "last_contacted": {
        "tstamp": null,
        "type": null,
        "object_id": null,
        "user_id": null,
        "deletion_tstamp": null
      },
      "company_last_contacted": {
        "in": null,
        "out": null
      },
      "last_contacted_user": null,
      "lc": null,
      "is_important": null,
      "notice": null,
      "reminders": null,
      "reminder": null,
      "creator_id": "64ca0fa2a6430c206b0e9bf6",
      "privacy": {
        "read": null,
        "edit": null
      },
      "is_editable": true,
      "stages_info": {},
      "files": null,
      "object_type": "contact",
      "tags2": [
        "CEO"
      ]
    },
    {
      "id": "64ca0fa4d1d39db980b9d42f",
      "record_type": "person",
      "fields": {
        "email": [
          {
            "label": "email",
            "modifier": "work",
            "value": "jmcgillmore@heriks.com",
            "is_primary": false
          }
        ],
        "first name": [
          {
            "label": "first name",
            "modifier": "",
            "value": "James",
            "is_primary": false
          }
        ],
        "last name": [
          {
            "label": "last name",
            "modifier": "",
            "value": "McGillmore",
            "is_primary": false
          }
        ],
        "lead_stage": [
          {
            "label": "lead_stage",
            "modifier": "",
            "value": "64ca0fa2d1d39db980b9d3fe",
            "is_primary": false
          }
        ],
        "parent company": [
          {
            "label": "parent company",
            "modifier": "",
            "value": "Herics and Co",
            "is_primary": false,
            "extra_value": "64ca0fa3d1d39db980b9d410"
          }
        ],
        "phone": [
          {
            "label": "phone",
            "modifier": "work",
            "value": "12375334532",
            "is_primary": false
          }
        ],
        "title": [
          {
            "label": "title",
            "modifier": "",
            "value": "Account Manager",
            "is_primary": false
          }
        ],
        "contact employment": [
          {
            "label": "contact employment",
            "modifier": "",
            "value": "{\"company_name\": \"Herics and Co\", \"end_date\": null, \"is_present\": true, \"start_date\": null, \"title\": \"Account Manager\"}",
            "is_primary": true,
            "extra_value": "64ca0fa3d1d39db980b9d410"
          }
        ]
      },
      "owner_id": null,
      "children": [],
      "employers_info": [
        {
          "contact_id": "64ca0fa3d1d39db980b9d410",
          "company_name": "Herics and Co",
          "avatar_url": "https://nimbleappcdn.azureedge.net/api/avatars/company_default"
        }
      ],
      "updated": "2023-08-02T08:11:16.752464",
      "created": "2023-08-02T08:11:16.752464",
      "updater": null,
      "creator": "Nimble Test",
      "avatar_url": "https://nimbleappcdn.azureedge.net/api/avatars/5a3dc17a7af6856720f43459/64ca0fa4d1d39db980b9d42f/person/2",
      "tags": [],
      "last_contacted": {
        "tstamp": null,
        "type": null,
        "object_id": null,
        "user_id": null,
        "deletion_tstamp": null
      },
      "company_last_contacted": {
        "in": null,
        "out": null
      },
      "last_contacted_user": null,
      "lc": null,
      "is_important": null,
      "notice": null,
      "reminders": null,
      "reminder": null,
      "creator_id": "64ca0fa2a6430c206b0e9bf6",
      "privacy": {
        "read": null,
        "edit": null
      },
      "is_editable": true,
      "stages_info": {},
      "files": null,
      "object_type": "contact",
      "tags2": []
    }
  ],
  "meta": {
    "per_page": 30,
    "total": 34,
    "pages": 2,
    "page": 1
  }
}